12895687,2013,,Laitila,,FIN,09/21/2013,09/21/2013,,
12895404,2013,,Tampere,,FIN,09/14/2013,09/14/2013,,
12895780,2013,,Kauhava,,FIN,09/08/2013,09/08/2013,,
12895135,2013,,Vihti,,FIN,09/08/2013,09/08/2013,,
12895298,2013,,Raasepori,,FIN,09/06/2013,09/06/2013,,
12895663,2013,,Vihti,,FIN,09/06/2013,09/06/2013,,
12895004,2013,,Kannus,,FIN,08/18/2013,08/18/2013,,
12895372,2013,,Raasepori,,FIN,08/18/2013,08/18/2013,,
12895459,2013,,Vesilahti,,FIN,08/17/2013,08/17/2013,,
12895476,2013,,Orimattila,,FIN,08/03/2013,08/03/2013,,
12895281,2013,,Outokumpu,,FIN,07/11/2013,07/11/2013,,
12895192,2013,,Mynämäki,,FIN,07/10/2013,07/10/2013,,
12895925,2013,,Kangasala,,FIN,07/09/2013,07/09/2013,,
12846836,2013,,Rieti,,ITA,07/06/2013,07/06/2013,,
12843929,2013,,Colorado Springs,CO,USA,06/30/2013,06/30/2013,Road race,Bristol Mile
12896104,2013,,Sipoo,,FIN,06/19/2013,06/19/2013,,
12895946,2013,,Tampere,,FIN,06/16/2013,06/16/2013,,
12895422,2013,,Heinola,,FIN,06/08/2013,06/08/2013,,
12896056,2013,,Riihimäki,,FIN,06/02/2013,06/02/2013,,
12895741,2013,,Helsinki,,FIN,05/28/2013,05/28/2013,,
12895112,2013,,Helsinki,,FIN,05/27/2013,05/27/2013,,
12840928,2013,,Draževina,,BIH,04/28/2013,04/28/2013,,6th International Shot Put Meeting
12905205,2013,Asics,Santa Monica,CA,USA,03/17/2013,03/17/2013,Road race,Asics LA Marathon
12895073,2013,,Turku,,FIN,03/16/2013,03/16/2013,Indoor,
12826333,2012,,Imola,,ITA,10/28/2012,10/28/2012,Road race,Giro Tre Monti
12895985,2012,,Laitila,,FIN,09/23/2012,09/23/2012,,
12895339,2012,,Tampere,,FIN,09/22/2012,09/22/2012,,
12895929,2012,,Lappajärvi,,FIN,09/15/2012,09/15/2012,,
12896050,2012,,Raisio,,FIN,09/07/2012,09/07/2012,,
12895005,2012,,Turku,,FIN,09/07/2012,09/07/2012,,
12896011,2012,,Raasepori,,FIN,08/26/2012,08/26/2012,,
12895215,2012,,Naantali,,FIN,07/10/2012,07/10/2012,,
12895445,2012,,Akaa,,FIN,07/05/2012,07/05/2012,,
12895147,2012,,Kauhava,,FIN,07/05/2012,07/05/2012,,
12895759,2012,,Ristiina,,FIN,06/18/2012,06/18/2012,,
12895717,2012,,Espoo,,FIN,05/29/2012,05/29/2012,,
12822703,2012,,Draževina,,BIH,04/28/2012,04/28/2012,,5th International Shot Put Meeting
12821969,2012,NC-j-j,Campinas,,BRA,04/14/2012,04/15/2012,,
12905206,2012,Honda,Santa Monica,CA,USA,03/18/2012,03/18/2012,Road race,Honda LA Marathon
12820618,2012,GPAC,Lincoln,NE,USA,02/17/2012,02/17/2012,Indoor,
12819162,2012,Upstate Chall,Ithaca,NY,USA,01/20/2012,01/20/2012,Indoor,
12895926,2011,,Laitila,,FIN,09/25/2011,09/25/2011,,
12815138,2011,,Sipoo,,FIN,09/25/2011,09/25/2011,,
12814954,2011,,Laitila,,FIN,09/24/2011,09/24/2011,,
12895389,2011,,Tampere,,FIN,09/24/2011,09/24/2011,,
12815169,2011,,Jalasjärvi,,FIN,09/11/2011,09/11/2011,,
12815137,2011,,Taipalsaari,,FIN,09/11/2011,09/11/2011,,
12815757,2011,,São Paulo,,BRA,08/27/2011,08/27/2011,,
12817773,2011,,Ratingen,,GER,07/26/2011,07/26/2011,,
12813144,2011,,Kaarina,,FIN,07/14/2011,07/14/2011,,
12819481,2011,,Nieuwpoort,,BEL,07/02/2011,07/02/2011,,
12813365,2011,02030711,Ribeira Brava,,POR,07/02/2011,07/03/2011,,
12895742,2011,,Leppävirta,,FIN,06/21/2011,06/21/2011,,
12819480,2011,,Onil,,ESP,06/10/2011,06/10/2011,,
12819478,2011,,Vaterstetten,,GER,06/04/2011,06/04/2011,,
12896080,2011,,Riihimäki,,FIN,05/28/2011,05/28/2011,,
12810730,2011,,Uusikaupunki,,FIN,05/28/2011,05/28/2011,,
12895800,2011,,Helsinki,,FIN,05/24/2011,05/24/2011,,
12819482,2011,,Ravne na Koroskem,,SLO,05/21/2011,05/21/2011,,
12818008,2011,,Sochi,,RUS,05/14/2011,05/14/2011,,
12819479,2011,,Niort,,FRA,05/13/2011,05/13/2011,,
12815427,2011,,Chiari,,ITA,05/01/2011,05/01/2011,,
12808737,2011,Robison,Provo,UT,USA,04/21/2011,04/21/2011,,
12889322,2011,NC,Bratislava,,SVK,02/26/2011,02/27/2011,Indoor,
12806669,2011,,Annapolis,MD,USA,02/10/2011,02/10/2011,Indoor,"Sweetheart Multi-Mix Track & Field Meet, Wesley A. Brown Fieldhouse"
12818427,2011,,Penza,,RUS,02/04/2011,02/04/2011,Indoor,
12805550,2011,,Turku,,FIN,01/22/2011,01/23/2011,Indoor,
12803400,2010,,Liberec,,CZE,10/09/2010,10/09/2010,,
12803540,2010,,Gävle,,SWE,10/03/2010,10/03/2010,,
12803105,2010,,Kielce,,POL,10/02/2010,10/02/2010,,
12803301,2010,,Helsinki,,FIN,09/23/2010,09/23/2010,,
12895175,2010,,Tampere,,FIN,09/19/2010,09/19/2010,,
12802053,2010,,Uusikaupunki,,FIN,09/18/2010,09/18/2010,,
12802370,2010,,Helsinki,,FIN,09/15/2010,09/15/2010,,
12804976,2010,,Exeter,,GBR,08/14/2010,08/14/2010,,
12895781,2010,,Helsinki,,FIN,08/10/2010,08/10/2010,,
12899929,2010,,Beyrouth,,LIB,07/31/2010,07/31/2010,,
12899922,2010,ECp,Barcelona,,ESP,07/27/2010,08/01/2010,,9th European Marathon Cup
12804595,2010,,Bucureşti,,ROU,07/22/2010,07/22/2010,,
12799855,2010,,Loimaa,,FIN,07/14/2010,07/14/2010,,
12804238,2010,,La Habana,,CUB,06/18/2010,06/18/2010,,
12798236,2010,,Hyvinkää,,FIN,06/12/2010,06/12/2010,,
12797619,2010,,Huittinen,,FIN,05/29/2010,05/29/2010,,
12895354,2010,,Nastola,,FIN,05/29/2010,05/29/2010,,
12804672,2010,,Bucureşti,,ROU,05/28/2010,05/28/2010,,
12804472,2010,,Emmeloord,,NED,05/23/2010,05/24/2010,,
12804454,2010,,Draževina,,BIH,04/25/2010,04/25/2010,,
12803929,2010,,Rio Maior,,POR,04/24/2010,04/24/2010,,
12817162,2010,,Tel Aviv,,ISR,04/21/2010,04/21/2010,,
12905204,2010,Honda,Santa Monica,CA,USA,03/21/2010,03/21/2010,Road race,
12793816,2010,NC,St. Gallen,,SUI,02/13/2010,02/14/2010,Indoor,
12793100,2010,,Auckland,,NZL,01/30/2010,01/30/2010,,
12790386,2009,,Osaka,,JPN,10/20/2009,10/20/2009,,
12790500,2009,,Opole,,POL,10/10/2009,10/10/2009,,
12790658,2009,,Townsville,,AUS,10/03/2009,10/03/2009,,
12792202,2009,,Leppävirta,,FIN,09/20/2009,09/20/2009,,
12789897,2009,,Turku,,FIN,09/20/2009,09/20/2009,,
12895461,2009,,Tampere,,FIN,09/13/2009,09/13/2009,,
12794276,2009,NC-j,Kouvola,,FIN,09/06/2009,09/06/2009,,
12885259,2009,,Berlin,,GER,08/16/2009,08/16/2009,,
12788975,2009,NC-j,Rakvere,,EST,07/28/2009,07/28/2009,,
12791238,2009,,Watford,,GBR,07/26/2009,07/26/2009,,
12791346,2009,,Watford,,GBR,07/25/2009,07/25/2009,,
12788613,2009,,Mynämäki,,FIN,07/08/2009,07/08/2009,,
12885249,2009,,Zhukovskiy,,RUS,07/05/2009,07/05/2009,,
12792032,2009,,Compiègne,,FRA,06/14/2009,06/14/2009,,
12791712,2009,,Valmiera,,LAT,06/12/2009,06/12/2009,,
12885242,2009,,Huelva,,ESP,06/10/2009,06/10/2009,,
12885232,2009,,Haniá,,GRE,06/01/2009,06/01/2009,,
12795656,2009,,Alger,,ALG,05/21/2009,05/21/2009,,
12786105,2009,,San Benedetto del Tronto,,ITA,04/25/2009,04/25/2009,,
12802824,2009,,Réduit,,MRI,04/19/2009,04/19/2009,,
12716129,2009,NobleR,San Angelo,TX,USA,04/07/2009,04/07/2009,,
12792409,2009,,Brisbane,,AUS,03/19/2009,03/19/2009,,
12885222,2009,,Los Realejos,,ESP,03/15/2009,03/15/2009,,
12575952,2009,,Dornbirn,,AUT,02/01/2009,02/01/2009,Indoor,
12565850,2009,UNI Inv,Cedar Falls,IA,USA,01/30/2009,01/31/2009,Indoor,
12542133,2009,NC-j,Nenagh,,IRL,01/17/2009,01/17/2009,Indoor,
12560619,2008,,Chita,,JPN,11/09/2008,11/09/2008,,
12553552,2008,,Katsuura,,JPN,10/25/2008,10/25/2008,,
12553596,2008,,Maebashi,,JPN,10/11/2008,10/11/2008,,
12138687,2008,,Trnava,,SVK,09/27/2008,09/27/2008,,
12106075,2008,,Helsinki,,FIN,09/25/2008,09/25/2008,,
12885197,2008,,Daegu,,KOR,09/25/2008,09/25/2008,,
12137259,2008,,Brno,,CZE,09/19/2008,09/19/2008,,
12118137,2008,,Leppävirta,,FIN,09/14/2008,09/14/2008,,
12885185,2008,,Rīga,,LAT,09/10/2008,09/10/2008,,
12794277,2008,NC-j,Kokkola,,FIN,09/07/2008,09/07/2008,,
12501142,2008,,Stoke,,GBR,09/06/2008,09/06/2008,,
12885184,2008,,Lausanne,,SUI,09/02/2008,09/02/2008,,
12117936,2008,,Jalasjärvi,,FIN,08/30/2008,08/30/2008,,
12885183,2008,,Beijing,,CHN,08/19/2008,08/19/2008,,
12118027,2008,NC,Holte,,DEN,08/09/2008,08/09/2008,,
11997418,2008,Sidlo,Sopot,,POL,07/26/2008,07/26/2008,,
11920336,2008,,Kauhava,,FIN,07/05/2008,07/05/2008,,
11920023,2008,SFI,Kirkkonummi,,FIN,07/05/2008,07/05/2008,,
12499578,2008,,Lübeck,,GER,07/05/2008,07/05/2008,,
12059267,2008,,Susupe,,NMA,06/26/2008,06/26/2008,,
11861993,2008,,Järvenpää,,FIN,06/23/2008,06/23/2008,,
12480323,2008,NC-j,Columbus,OH,USA,06/22/2008,06/22/2008,,
11831900,2008,,Joensuu,,FIN,06/19/2008,06/19/2008,,
11833044,2008,,Joensuu,,FIN,06/18/2008,06/18/2008,,
12118710,2008,,Götzis,,AUT,06/14/2008,06/14/2008,,
12497562,2008,,Cormeilles,,FRA,06/14/2008,06/14/2008,,
12497049,2008,,Nice,,FRA,06/14/2008,06/14/2008,,
12134679,2008,,Bucureşti,,ROU,06/13/2008,06/13/2008,,
12065897,2008,,Jyväskylä,,FIN,06/07/2008,06/07/2008,,
12480178,2008,,Albuquerque,NM,USA,06/06/2008,06/06/2008,,
12475945,2008,,Albuquerque,NM,USA,06/05/2008,06/05/2008,,
12482725,2008,,Birmingham,,GBR,05/31/2008,05/31/2008,,
11710161,2008,,Uusikaupunki,,FIN,05/25/2008,05/25/2008,,
11711031,2008,,Uusikaupunki,,FIN,05/24/2008,05/24/2008,,
12494434,2008,,Bourgoin-Jallieu,,FRA,05/24/2008,05/24/2008,,
12557484,2008,,Yonezawa,,JPN,05/24/2008,05/24/2008,,
12118701,2008,,Landquart,,SUI,05/24/2008,05/24/2008,,
11775473,2008,,Grudziądz,,POL,05/12/2008,05/12/2008,,
12497432,2008,,Plessis Robinson,,FRA,05/11/2008,05/11/2008,,
12499284,2008,,Limburgerhof,,GER,05/11/2008,05/11/2008,,
12802544,2008,,Mont Dore,,FRA,05/03/2008,05/03/2008,,
12118212,2008,,Willisau,,SUI,05/03/2008,05/03/2008,,
11608201,2008,,Forlì,,ITA,04/26/2008,04/26/2008,,
11607056,2008,,Soffiano,,ITA,04/26/2008,04/26/2008,,
11608107,2008,,Torino,,ITA,04/26/2008,04/26/2008,,
12480537,2008,,Marion,NY,USA,04/23/2008,04/23/2008,,
12030801,2008,,Marinha Grande,,POR,04/13/2008,04/13/2008,,
11761667,2008,,Machico,,POR,04/12/2008,04/12/2008,,
12497026,2008,,Vénissieux,,FRA,04/06/2008,04/06/2008,,
12560556,2008,,Toyota,,JPN,04/06/2008,04/06/2008,,
11585889,2008,,Santo Domingo,,DOM,04/05/2008,04/05/2008,,
12885127,2008,,Split,,CRO,03/15/2008,03/15/2008,,
12885105,2008,,Germiston,,RSA,02/22/2008,02/22/2008,,
11351631,2008,,Akron,OH,USA,02/01/2008,02/02/2008,"Indoor, oversized track",
11341938,2008,,Cedar Falls,IA,USA,02/01/2008,02/02/2008,Indoor,
11398389,2008,Elite Inv,Madison,WI,USA,01/25/2008,01/25/2008,Indoor,
11354286,2008,Johnson,Minneapolis,MN,USA,01/25/2008,01/25/2008,Indoor,
11333026,2008,Nike,Toronto,,CAN,01/18/2008,01/18/2008,Indoor,
11354316,2008,Snake River,Pocatello,ID,USA,01/18/2008,01/18/2008,Indoor,
11315613,2008,,Bompas,,FRA,01/12/2008,01/12/2008,Indoor,
11332847,2008,,Nenagh,,IRL,01/12/2008,01/12/2008,Indoor,
11315229,2008,,Sankt Peterburg,,RUS,01/06/2008,01/06/2008,Indoor,
10738164,2007,,Glasgow,,GBR,12/08/2007,12/08/2007,Indoor,
11354118,2007,,Manhattan,KS,USA,12/06/2007,12/06/2007,Indoor,
11354309,2007,Kickoff,Lynchburg,VA,USA,11/30/2007,11/30/2007,Indoor,
11370534,2007,,Hastings,,NZL,11/10/2007,11/10/2007,,
10742440,2007,,Sydney,,AUS,10/20/2007,10/20/2007,,
10706796,2007,,Maebashi,,JPN,10/13/2007,10/13/2007,,
10742679,2007,UnivG,Gold Coast,,AUS,09/27/2007,09/27/2007,,
10675247,2007,,Hochdorf,,SUI,09/23/2007,09/23/2007,,
10673257,2007,,Hochdorf,,SUI,09/22/2007,09/22/2007,,
10685150,2007,,Budapest,,HUN,09/16/2007,09/16/2007,,
11543457,2007,,Erith,,GBR,09/15/2007,09/15/2007,,
10673093,2007,,Exeter,,GBR,09/15/2007,09/15/2007,,
10715933,2007,,Scafati,,ITA,09/15/2007,09/15/2007,,
10714088,2007,,Vantaa,,FIN,09/14/2007,09/14/2007,,
10644835,2007,,Stoke,,GBR,09/08/2007,09/08/2007,,
10658163,2007,NC,Kapfenberg,,AUT,08/25/2007,08/25/2007,,
10707839,2007,NC,Beveren,,BEL,08/25/2007,08/25/2007,,
10726838,2007,,Beveren,,BEL,08/25/2007,08/25/2007,,
10672268,2007,,Woerden,,NED,08/25/2007,08/25/2007,,
10673052,2007,,Bedford,,GBR,08/04/2007,08/04/2007,,
10715987,2007,,Aix-en-Provence,,FRA,08/03/2007,08/03/2007,,
10716098,2007,,Weinstadt,,GER,07/28/2007,07/28/2007,,
10587475,2007,NC,Hammerfest,,NOR,07/28/2007,07/28/2007,,
10594984,2007,,Amman,,JOR,07/27/2007,07/27/2007,,
10708125,2007,,Hexham,,GBR,07/21/2007,07/21/2007,,
10715965,2007,,Alger,,ALG,07/20/2007,07/20/2007,,
10716014,2007,AAG,Alger,,ALG,07/20/2007,07/20/2007,,
10679526,2007,,Barcelona,,ESP,07/20/2007,07/20/2007,,
10707806,2007,,Dallas,TX,USA,07/14/2007,07/14/2007,,
12501118,2007,,São Paulo,,BRA,07/07/2007,07/07/2007,,
10715962,2007,,Saulheim,,GER,07/07/2007,07/07/2007,,
10533287,2007,,Compiègne,,FRA,07/06/2007,07/06/2007,,
10289095,2007,,Obourg,,BEL,06/29/2007,06/29/2007,,
10714100,2007,,Nieuwpoort,,BEL,06/23/2007,06/23/2007,,
10679603,2007,,Castellón,,ESP,06/23/2007,06/23/2007,,
10675353,2007,,London,,GBR,06/23/2007,06/23/2007,,
10673194,2007,,Frauenfeld,,SUI,06/17/2007,06/17/2007,,
10714632,2007,,Kuortane,,FIN,06/09/2007,06/09/2007,,
10672115,2007,,Stoke,,GBR,06/09/2007,06/09/2007,,
10714307,2007,,Wesel,,GER,06/09/2007,06/09/2007,,
10190486,2007,PapG,Arnhem,,NED,06/09/2007,06/09/2007,,
10190097,2007,,Castellón,,ESP,05/27/2007,05/27/2007,,
10189878,2007,,Castellón,,ESP,05/26/2007,05/26/2007,,
9988075,2007,,Vammala,,FIN,05/26/2007,05/26/2007,,
10716565,2007,NC,Reykjavik,,ISL,05/26/2007,05/26/2007,,
9990912,2007,Lerumkampen,Lerum,,SWE,05/26/2007,05/26/2007,,
10714275,2007,,Bourgoin-Jallieu,,FRA,05/25/2007,05/25/2007,,
10715930,2007,,Clermont-Ferrand,,FRA,05/25/2007,05/25/2007,,
10291140,2007,,Lunel,,FRA,05/25/2007,05/25/2007,,
10184533,2007,NC,Tiraspol,,MDA,05/25/2007,05/25/2007,,
10715971,2007,,Woodford,,GBR,05/19/2007,05/19/2007,,
10674613,2007,,Landquart,,SUI,05/19/2007,05/19/2007,,
10178029,2007,,Lienz,,AUT,05/12/2007,05/12/2007,,
10307313,2007,,Třinec,,CZE,05/12/2007,05/12/2007,,
10018767,2007,,Pardubice,,CZE,05/11/2007,05/11/2007,,
10675909,2007,,Zürich,,SUI,05/09/2007,05/09/2007,,
10714518,2007,,Kreuztal,,GER,05/05/2007,05/05/2007,,
10714120,2007,,Osnabrück,,GER,05/05/2007,05/05/2007,,
10675253,2007,,Willisau,,SUI,05/05/2007,05/05/2007,,
10715985,2007,,Charlotte,NC,USA,05/05/2007,05/05/2007,,
10716054,2007,,Medellín,,COL,05/04/2007,05/04/2007,,
9904131,2007,,Soffiano,,ITA,04/28/2007,04/28/2007,,
9900127,2007,Legacy,Baltimore,MD,USA,04/20/2007,04/20/2007,,
9899219,2007,NC,Réduit,,MRI,04/18/2007,04/18/2007,,
9860868,2007,,Colorado Springs,CO,USA,04/14/2007,04/14/2007,,
9860675,2007,CC Inv,Colorado Springs,CO,USA,04/14/2007,04/14/2007,,
10714599,2007,,Columbia,MO,USA,04/12/2007,04/12/2007,,
10714552,2007,,Princeton,NJ,USA,04/12/2007,04/12/2007,,
9865163,2007,NobleR,San Angelo,TX,USA,04/12/2007,04/12/2007,,
9861158,2007,Sea Ray,Knoxville,TN,USA,04/11/2007,04/11/2007,,
11313401,2007,,Esbjerg,,DEN,04/09/2007,04/09/2007,,
10742651,2007,,Adelaide,,AUS,04/07/2007,04/07/2007,,
